project	sown_year	harvested_year	id_seed_lot_sown	intra_selection_name	etiquette	split	quantity_sown	quantity_harvested	block	X	Y	sowing_density	sowing_density$date	sowing_type	sowing_type$date	tkw	tkw$date
PPB	2015	2016	YxG_JOD_2015_0001			1	150	555	1	1	1	45	2015-11-21	manual	2015-11-21	120	2016-06-19
PPB	2015	2016	RxY_JOD_2015_0001			1	150	666	1	1	2	54	2015-11-21	manual	2015-11-21	110	2016-06-19
PPB	2015	2016	RxG_JOD_2015_0001			1	150	854	1	1	3	55	2015-11-21	manual	2015-11-21	108	2016-06-19
PPB	2015	2016	RxB_JOD_2015_0001			1	150	584	1	1	4	48	2015-11-21	manual	2015-11-21	125	2016-06-19
PPB	2015	2016	BxY_JOD_2015_0001			1	150	985	1	1	5	69	2015-11-21	manual	2015-11-21	111	2016-06-19
PPB	2015	2016	BxG_JOD_2015_0001			1	150	556	1	1	6	125	2015-11-21	manual	2015-11-21	98	2016-06-19
PPB	2015	2016	YxG_PEM_2015_0001			1	150	667	1	1	1	126	2015-11-21	manual	2015-11-21	121	2016-06-19
PPB	2015	2016	RxY_PEM_2015_0001			1	150	855	1	1	2	84	2015-11-21	mechanic	2015-11-21	111	2016-06-19
PPB	2015	2016	RxG_PEM_2015_0001			1	150	585	1	1	3	89	2015-11-21	mechanic	2015-11-21	109	2016-06-19
PPB	2015	2016	RxB#S1_PEM_2015_0001			1	150	986	1	1	4	74	2015-11-21	mechanic	2015-11-21	126	2016-06-19
PPB	2015	2016	RxB_PEM_2015_0001			1	150	557	1	1	5	65	2015-11-21	mechanic	2015-11-21	112	2016-06-19
PPB	2015	2016	BxY_PEM_2015_0001			1	150	668	1	1	6	85	2015-11-21	mechanic	2015-11-21	99	2016-06-19
PPB	2015	2016	BxG_PEM_2015_0001			1	150	856	1	1	7	90	2015-11-21	mechanic	2015-11-21	122	2016-06-19
PPB	2015	2016	BxG_STS_2015_0001			1	150	586	1	1	1	75	2015-11-21	manual	2015-11-21	85	2016-06-19
PPB	2015	2016	BxY_STS_2015_0001			1	150	987	1	1	2	66	2015-11-21	manual	2015-11-21	78	2016-06-19
PPB	2015	2016	RxB_STS_2015_0001			1	150	558	1	1	3	86	2015-11-21	manual	2015-11-21	99	2016-06-19
PPB	2015	2016	RxG_STS_2015_0001			1	150	669	1	1	4	91	2015-11-21	manual	2015-11-21	122	2016-06-19
PPB	2015	2016	RxY_STS_2015_0001			1	150	857	1	1	5	76	2015-11-21	manual	2015-11-21	112	2016-06-19
PPB	2015	2016	YxG_STS_2015_0001			1	150	587	1	1	6	67	2015-11-21	manual	2015-11-21	110	2016-06-19
PPB	2015	2016	BxG_STS_2015_0001			1	150	988	2	2	1	87	2015-11-21	mechanic	2015-11-21	127	2016-06-19
PPB	2015	2016	BxY_STS_2015_0001			1	150	559	2	2	2	92	2015-11-21	mechanic	2015-11-21	113	2016-06-19
PPB	2015	2016	RxB_STS_2015_0001			1	150	670	2	2	3	77	2015-11-21	mechanic	2015-11-21	100	2016-06-19
PPB	2015	2016	RxG_STS_2015_0001			1	150	858	2	2	4	68	2015-11-21	mechanic	2015-11-21	123	2016-06-19
PPB	2015	2016	RxY_STS_2015_0001			1	150	588	2	2	5	88	2015-11-21	mechanic	2015-11-21	86	2016-06-19
PPB	2015	2016	YxG_STS_2015_0001			1	150	989	2	2	6	93	2015-11-21	mechanic	2015-11-21	79	2016-06-19
